…
You can get the data that you would like to have using ```get_data_from_konya(data_name)``` 

```
>get_data_from_konya("akilli-durak-ekranlari-bilgileri")
# A tibble: 184 × 3
   durak_no ekran_tipi enerji_tipi     
   <chr>    <chr>      <chr>           
 1 1003D    D          Güneş Enerjisi  
 2 1203A    D          Güneş Enerjisi  
 3 1409D    D          Güneş Enerjisi  
 4 17A      C          Güneş Enerjisi  
 5 2411D    C          Güneş Enerjisi  
 6 3D       A          Şebeke Elektriği
 7 3A       A          Şebeke Elektriği
 8 5D       A          Şebeke Elektriği
 9 6D       A          Şebeke Elektriği
10 7A       B          Şebeke Elektriği
# ℹ 174 more rows
# ℹ Use `print(n = ...)` to see more rows
``` 
…
